Proposal_FreshCode
…
Expenditure_USD_V1 <- Expenditure_USD %>% gather(key = Country_Year, value = Numerical_Expenditure, 3:71)

Expenditure_USD_V1[Expenditure_USD_V1 == ". ."] <- NA
Expenditure_USD_V1[Expenditure_USD_V1 == "xxx"] <- NA
Expenditure_USD_V1[Expenditure_USD_V1 == "NA"] <- NA 
Expenditure_USD_V1

## # A tibble: 13,179 x 4
##    Country      Notes Country_Year Numerical_Expenditure
##    <chr>        <chr> <chr>        <chr>                
##  1 Africa       <NA>  1949         <NA>                 
##  2 North Africa <NA>  1949         <NA>                 
##  3 Algeria      1     1949         <NA>                 
##  4 Libya          2 1949         <NA>                 
##  5 Morocco      3     1949         <NA>                 
##  6 Tunisia      <NA>  1949         <NA>                 
##  7 Sub-Saharan  <NA>  1949         <NA>                 
##  8 Angola       4     1949         <NA>                 
##  9 Benin        <NA>  1949         <NA>                 
## 10 Botswana     <NA>  1949         <NA>                 
## #  with 13,169 more rows

Expenditure_USD_V2 <- Expenditure_USD_V1 %>% select(-Notes) %>% mutate(Country_Year = as.numeric(Country_Year), Numerical_Expenditure = as.numeric(Numerical_Expenditure))
Expenditure_USD_V2

## # A tibble: 13,179 x 3
##    Country      Country_Year Numerical_Expenditure
##    <chr>               <dbl>                 <dbl>
##  1 Africa               1949                    NA
##  2 North Africa         1949                    NA
##  3 Algeria              1949                    NA
##  4 Libya                1949                    NA
##  5 Morocco              1949                    NA
##  6 Tunisia              1949                    NA
##  7 Sub-Saharan          1949                    NA
##  8 Angola               1949                    NA
##  9 Benin                1949                    NA
## 10 Botswana             1949                    NA
## #  with 13,169 more rows
…
sum(table(unique(Expenditure_USD_V3$Country)))

## [1] 173

Expenditure_USD_V3

## # A tibble: 11,937 x 3
##    Country      Country_Year Numerical_Expenditure
##    <chr>               <dbl>                 <dbl>
##  1 Algeria              1949                    NA
##  2 Libya                1949                    NA
##  3 Morocco              1949                    NA
##  4 Tunisia              1949                    NA
##  5 Angola               1949                    NA
##  6 Benin                1949                    NA
##  7 Botswana             1949                    NA
##  8 Burkina Faso         1949                    NA
##  9 Burundi              1949                    NA
## 10 Cameroon             1949                    NA
## #  with 11,927 more rows
…
